============================================================================= 
################### - RELATORIO DE CLIENTES POR CIDADE - #################### 


============================================================================= 

 => CODIGO: 1 	=> CLIENTE: Fabio 	=> TELEFONE: (48)-34334407
 => CPF: 123456789-09 	=> RG: 123456 	=> SEXO: Masculino
 => ENDERECO: Eugenio 	 => ESTADO CIVIL: Solteiro
 => CEP: 88817-270 	=> BAIRRO: Vila_Zuleima
 => CIDADE: Criciuma 	=> ESTADO: SC

