============================================================================= 
######################## - RELATORIO DE CONTAS POR DATA CADASTRO - ################### 


============================================================================= 

 => CODIGO: 1 	=> CLIENTE: Fabio 
 => AGENCIA: 2 
 => TIPO CONTA: Poupanca 	 => DATA CADASTRO: 18/06/2007
 => ATENDENTE: Fabio 
