============================================================================= 
################### - RELATORIO DE AGENCIAS POR BAIRRO - #################### 


============================================================================= 

 => CODIGO: 1 	=> AGENCIA: Real 	=> TELEFONE: (48)-34334407
 => ENDERECO: Centro - 
 => CEP: 88817-270 	=> BAIRRO: Centro
 => CIDADE: Criciuma 	=> ESTADO: SC

============================================================================= 

 => CODIGO: 2 	=> AGENCIA: Brasil 	=> TELEFONE: (48)-34310000
 => ENDERECO: Centro - 
 => CEP: 888-800 	=> BAIRRO: Centro
 => CIDADE: Veneza 	=> ESTADO: SC

